[gd_scene load_steps=3 format=3 uid="uid://batwchwyp5mx7"]

[ext_resource type="Texture2D" uid="uid://c77henctf7tec" path="res://icon.svg" id="1_wocld"]
[ext_resource type="Script" path="res://RotationScript.gd" id="2_v1b12"]

[node name="Node2D" type="Node2D"]

[node name="Sprite2D" type="Sprite2D" parent="."]
position = Vector2(586, 354)
texture = ExtResource("1_wocld")
script = ExtResource("2_v1b12")
